module modernc.org/libXft

go 1.21

require (
	modernc.org/cc/v4 v4.24.4
	modernc.org/ccgo/v4 v4.23.16
	modernc.org/fileutil v1.3.0
	modernc.org/libX11 v0.11.13
	modernc.org/libXrender v0.9.13
	modernc.org/libc v1.61.13
	modernc.org/libfontconfig v0.8.10
	modernc.org/libfreetype v0.9.17
)

require (
	github.com/dustin/go-humanize v1.0.1 // indirect
	github.com/google/uuid v1.6.0 // indirect
	github.com/kballard/go-shellquote v0.0.0-20180428030007-95032a82bc51 // indirect
	github.com/mattn/go-isatty v0.0.20 // indirect
	github.com/ncruces/go-strftime v0.1.9 // indirect
	github.com/remyoudompheng/bigfft v0.0.0-20230129092748-24d4a6f8daec // indirect
	golang.org/x/exp v0.0.0-20230315142452-642cacee5cc0 // indirect
	golang.org/x/mod v0.19.0 // indirect
	golang.org/x/sync v0.7.0 // indirect
	golang.org/x/sys v0.28.0 // indirect
	golang.org/x/tools v0.23.0 // indirect
	lukechampine.com/uint128 v1.2.0 // indirect
	modernc.org/cc/v3 v3.41.0 // indirect
	modernc.org/ccgo/v3 v3.17.0 // indirect
	modernc.org/gc/v2 v2.6.3 // indirect
	modernc.org/libXau v0.9.9 // indirect
	modernc.org/libXdmcp v0.12.9 // indirect
	modernc.org/libbsd v0.11.5 // indirect
	modernc.org/libexpat v0.10.9 // indirect
	modernc.org/libmd v0.12.12 // indirect
	modernc.org/libxcb v0.11.3 // indirect
	modernc.org/libz v0.16.14 // indirect
	modernc.org/mathutil v1.7.1 // indirect
	modernc.org/memory v1.8.2 // indirect
	modernc.org/opt v0.1.4 // indirect
	modernc.org/sortutil v1.2.1 // indirect
	modernc.org/strutil v1.2.1 // indirect
	modernc.org/token v1.1.0 // indirect
)
